<?xml version="1.0" encoding="UTF-8" standalone="no"?>
<!-- Created with Inkscape (http://www.inkscape.org/) -->

<svg
   xmlns:dc="http://purl.org/dc/elements/1.1/"
   xmlns:cc="http://creativecommons.org/ns#"
   xmlns:rdf="http://www.w3.org/1999/02/22-rdf-syntax-ns#"
   xmlns:svg="http://www.w3.org/2000/svg"
   xmlns="http://www.w3.org/2000/svg"
   xmlns:sodipodi="http://sodipodi.sourceforge.net/DTD/sodipodi-0.dtd"
   xmlns:inkscape="http://www.inkscape.org/namespaces/inkscape"
   width="210mm"
   height="297mm"
   viewBox="0 0 744.09448819 1052.3622047"
   id="svg2"
   version="1.1"
   inkscape:version="0.91 r13725"
   sodipodi:docname="conf.svg">
  <defs
     id="defs4" />
  <sodipodi:namedview
     id="base"
     pagecolor="#ffffff"
     bordercolor="#666666"
     borderopacity="1.0"
     inkscape:pageopacity="0.0"
     inkscape:pageshadow="2"
     inkscape:zoom="0.58"
     inkscape:cx="69.247831"
     inkscape:cy="607.52293"
     inkscape:document-units="px"
     inkscape:current-layer="layer1"
     showgrid="false"
     inkscape:window-width="1280"
     inkscape:window-height="690"
     inkscape:window-x="0"
     inkscape:window-y="0"
     inkscape:window-maximized="1" />
  <metadata
     id="metadata7">
    <rdf:RDF>
      <cc:Work
         rdf:about="">
        <dc:format>image/svg+xml</dc:format>
        <dc:type
           rdf:resource="http://purl.org/dc/dcmitype/StillImage" />
        <dc:title></dc:title>
      </cc:Work>
    </rdf:RDF>
  </metadata>
  <g
     inkscape:label="Layer 1"
     inkscape:groupmode="layer"
     id="layer1">
    <path
       sodipodi:type="star"
       style="fill:none"
       id="path3336"
       sodipodi:sides="12"
       sodipodi:cx="442.85715"
       sodipodi:cy="463.79077"
       sodipodi:r1="220.22252"
       sodipodi:r2="110.11126"
       sodipodi:arg1="2.3653685"
       sodipodi:arg2="2.6271679"
       inkscape:flatsided="false"
       inkscape:rounded="0"
       inkscape:randomized="0"
       d="M 285.7143,618.07649 346.99694,517.96927 229.62459,518.8347 332.75052,462.78062 230.67037,404.84393 348.00709,407.86264 288.57143,306.64792 388.67865,367.93056 387.81322,250.55821 443.8673,353.68415 501.80399,251.604 498.78527,368.94071 600,309.50505 538.71736,409.61227 656.08971,408.74684 552.96377,464.80092 655.04392,522.73761 537.70721,519.7189 597.14287,620.93362 497.03565,559.65098 497.90108,677.02333 441.847,573.8974 383.91031,675.97755 386.92902,558.64083 Z" />
    <path
       sodipodi:type="star"
       style="fill:#000000"
       id="path3454"
       sodipodi:sides="16"
       sodipodi:cx="298.27586"
       sodipodi:cy="331.67255"
       sodipodi:r1="217.02917"
       sodipodi:r2="149.75014"
       sodipodi:arg1="0.67846301"
       sodipodi:arg2="0.87481255"
       inkscape:flatsided="false"
       inkscape:rounded="-3.469447e-18"
       inkscape:randomized="0"
       d="m 467.24136,467.87944 -72.9546,-21.28514 7.96875,75.57731 -59.2558,-47.58343 -21.56002,72.87385 -36.53582,-66.63757 -47.80648,59.07599 -8.25361,-75.54674 -66.77483,36.28435 21.28515,-72.9546 -75.57732,7.96874 47.58343,-59.25579 -72.87384,-21.56002 66.63756,-36.53583 -59.075983,-47.80647 75.546733,-8.25361 -36.28435,-66.77483 72.95461,21.28515 -7.96875,-75.57732 59.25579,47.58343 21.56003,-72.87384 36.53582,66.63756 47.80648,-59.07598 8.25361,75.54673 66.77482,-36.28435 -21.28514,72.95461 75.57731,-7.96875 -47.58342,59.25579 72.87384,21.56002 -66.63757,36.53583 59.07599,47.80648 -75.54674,8.2536 z" />
    <circle
       style="fill:#ffffff"
       id="path3458"
       cx="301.72415"
       cy="335.12085"
       r="60.344826" />
  </g>
</svg>
